111111111111111111111111
222222222222222222222222222
33333333333333333333333333
4444444444444444444444444
5555555555555555555555555
666666666666666666666666666666
777777777777777777777777777777777
888888888888888888888888888888888888
9999999999999999999999999999999999999
0000000000000000000000000000000000
111111111111111111111111
222222222222222222222222222
33333333333333333333333333
4444444444444444444444444
5555555555555555555555555
666666666666666666666666666666
777777777777777777777777777777777
888888888888888888888888888888888888
9999999999999999999999999999999999999
0000000000000000000000000000000000
111111111111111111111111
222222222222222222222222222
33333333333333333333333333
4444444444444444444444444
5555555555555555555555555
666666666666666666666666666666
777777777777777777777777777777777
888888888888888888888888888888888888
9999999999999999999999999999999999999
0000000000000000000000000000000000